<mxfile host="app.diagrams.net" modified="2023-05-12T08:48:16.051Z" agent="Mozilla/5.0 (Macintosh; Intel Mac OS X 10_15_7) AppleWebKit/537.36 (KHTML, like Gecko) Chrome/112.0.0.0 Safari/537.36" etag="jf6N04hHkMaM4EX_2_hr" version="21.2.3" type="gitlab">
  <diagram name="Page-1" id="c7488fd3-1785-93aa-aadb-54a6760d102a">
    <mxGraphModel dx="2074" dy="1156" grid="1" gridSize="10" guides="1" tooltips="1" connect="1" arrows="1" fold="1" page="1" pageScale="1" pageWidth="1100" pageHeight="850" background="none" math="0" shadow="0">
      <root>
        <mxCell id="0" />
        <mxCell id="1" parent="0" />
        <mxCell id="2b4e8129b02d487f-1" value="Pool" style="swimlane;html=1;childLayout=stackLayout;horizontal=1;startSize=20;horizontalStack=0;rounded=0;shadow=0;labelBackgroundColor=none;strokeWidth=1;fontFamily=Verdana;fontSize=8;align=center;" parent="1" vertex="1">
          <mxGeometry x="190" y="120" width="1200" height="510" as="geometry" />
        </mxCell>
        <mxCell id="2b4e8129b02d487f-2" value="&lt;font style=&quot;font-size: 14px;&quot;&gt;社区生态&lt;/font&gt;" style="swimlane;html=1;startSize=20;horizontal=0;" parent="2b4e8129b02d487f-1" vertex="1">
          <mxGeometry y="20" width="1200" height="160" as="geometry" />
        </mxCell>
        <mxCell id="2b4e8129b02d487f-7" value="需求输入" style="rounded=1;whiteSpace=wrap;html=1;shadow=0;labelBackgroundColor=none;strokeWidth=1;fontFamily=Verdana;fontSize=8;align=center;" parent="2b4e8129b02d487f-2" vertex="1">
          <mxGeometry x="80" y="23.5" width="90" height="37" as="geometry" />
        </mxCell>
        <mxCell id="2b4e8129b02d487f-8" value="" style="ellipse;whiteSpace=wrap;html=1;rounded=0;shadow=0;labelBackgroundColor=none;strokeWidth=2;fontFamily=Verdana;fontSize=8;align=center;" parent="2b4e8129b02d487f-2" vertex="1">
          <mxGeometry x="30" y="27" width="30" height="30" as="geometry" />
        </mxCell>
        <mxCell id="p9ZNGfW3cqj9VSiaM707-105" value="" style="endArrow=classic;html=1;rounded=0;exitX=1;exitY=0.5;exitDx=0;exitDy=0;" edge="1" parent="2b4e8129b02d487f-2" source="2b4e8129b02d487f-8" target="2b4e8129b02d487f-7">
          <mxGeometry width="50" height="50" relative="1" as="geometry">
            <mxPoint x="135" y="70.5" as="sourcePoint" />
            <mxPoint x="135" y="213.5" as="targetPoint" />
          </mxGeometry>
        </mxCell>
        <mxCell id="p9ZNGfW3cqj9VSiaM707-135" value="Patch 问题捕获" style="rounded=1;whiteSpace=wrap;html=1;shadow=0;labelBackgroundColor=none;strokeWidth=1;fontFamily=Verdana;fontSize=8;align=center;fillColor=#ffcc99;strokeColor=#36393d;" vertex="1" parent="2b4e8129b02d487f-2">
          <mxGeometry x="490" y="20" width="90" height="37" as="geometry" />
        </mxCell>
        <mxCell id="p9ZNGfW3cqj9VSiaM707-139" value="" style="ellipse;whiteSpace=wrap;html=1;rounded=0;shadow=0;labelBackgroundColor=none;strokeWidth=2;fontFamily=Verdana;fontSize=8;align=center;" vertex="1" parent="2b4e8129b02d487f-2">
          <mxGeometry x="430" y="23.5" width="30" height="30" as="geometry" />
        </mxCell>
        <mxCell id="p9ZNGfW3cqj9VSiaM707-140" value="Patch 修复" style="rounded=1;whiteSpace=wrap;html=1;shadow=0;labelBackgroundColor=none;strokeWidth=1;fontFamily=Verdana;fontSize=8;align=center;" vertex="1" parent="2b4e8129b02d487f-2">
          <mxGeometry x="620" y="20" width="70" height="37" as="geometry" />
        </mxCell>
        <mxCell id="p9ZNGfW3cqj9VSiaM707-141" value="" style="endArrow=classic;html=1;rounded=0;exitX=1;exitY=0.5;exitDx=0;exitDy=0;entryX=0;entryY=0.5;entryDx=0;entryDy=0;" edge="1" parent="2b4e8129b02d487f-2" source="p9ZNGfW3cqj9VSiaM707-139" target="p9ZNGfW3cqj9VSiaM707-135">
          <mxGeometry width="50" height="50" relative="1" as="geometry">
            <mxPoint x="590" y="-31" as="sourcePoint" />
            <mxPoint x="620" y="-31.5" as="targetPoint" />
          </mxGeometry>
        </mxCell>
        <mxCell id="p9ZNGfW3cqj9VSiaM707-143" value="" style="endArrow=classic;html=1;rounded=0;exitX=1;exitY=0.5;exitDx=0;exitDy=0;entryX=0;entryY=0.5;entryDx=0;entryDy=0;" edge="1" parent="2b4e8129b02d487f-2" source="p9ZNGfW3cqj9VSiaM707-135" target="p9ZNGfW3cqj9VSiaM707-140">
          <mxGeometry width="50" height="50" relative="1" as="geometry">
            <mxPoint x="590" y="-31" as="sourcePoint" />
            <mxPoint x="620" y="-31.5" as="targetPoint" />
          </mxGeometry>
        </mxCell>
        <mxCell id="p9ZNGfW3cqj9VSiaM707-144" value="构建问题捕获" style="rounded=1;whiteSpace=wrap;html=1;shadow=0;labelBackgroundColor=none;strokeWidth=1;fontFamily=Verdana;fontSize=8;align=center;fillColor=#ffcc99;strokeColor=#36393d;" vertex="1" parent="2b4e8129b02d487f-2">
          <mxGeometry x="660" y="93" width="90" height="37" as="geometry" />
        </mxCell>
        <mxCell id="p9ZNGfW3cqj9VSiaM707-145" value="" style="ellipse;whiteSpace=wrap;html=1;rounded=0;shadow=0;labelBackgroundColor=none;strokeWidth=2;fontFamily=Verdana;fontSize=8;align=center;" vertex="1" parent="2b4e8129b02d487f-2">
          <mxGeometry x="600" y="96.5" width="30" height="30" as="geometry" />
        </mxCell>
        <mxCell id="p9ZNGfW3cqj9VSiaM707-146" value="构建问题修复" style="rounded=1;whiteSpace=wrap;html=1;shadow=0;labelBackgroundColor=none;strokeWidth=1;fontFamily=Verdana;fontSize=8;align=center;" vertex="1" parent="2b4e8129b02d487f-2">
          <mxGeometry x="790" y="93" width="90" height="37" as="geometry" />
        </mxCell>
        <mxCell id="p9ZNGfW3cqj9VSiaM707-147" value="" style="endArrow=classic;html=1;rounded=0;exitX=1;exitY=0.5;exitDx=0;exitDy=0;entryX=0;entryY=0.5;entryDx=0;entryDy=0;" edge="1" parent="2b4e8129b02d487f-2" source="p9ZNGfW3cqj9VSiaM707-145" target="p9ZNGfW3cqj9VSiaM707-144">
          <mxGeometry width="50" height="50" relative="1" as="geometry">
            <mxPoint x="760" y="42" as="sourcePoint" />
            <mxPoint x="790" y="41.5" as="targetPoint" />
          </mxGeometry>
        </mxCell>
        <mxCell id="p9ZNGfW3cqj9VSiaM707-148" value="" style="endArrow=classic;html=1;rounded=0;exitX=1;exitY=0.5;exitDx=0;exitDy=0;entryX=0;entryY=0.5;entryDx=0;entryDy=0;" edge="1" parent="2b4e8129b02d487f-2" source="p9ZNGfW3cqj9VSiaM707-144" target="p9ZNGfW3cqj9VSiaM707-146">
          <mxGeometry width="50" height="50" relative="1" as="geometry">
            <mxPoint x="760" y="42" as="sourcePoint" />
            <mxPoint x="790" y="41.5" as="targetPoint" />
          </mxGeometry>
        </mxCell>
        <mxCell id="p9ZNGfW3cqj9VSiaM707-149" value="兼容性问题捕获" style="rounded=1;whiteSpace=wrap;html=1;shadow=0;labelBackgroundColor=none;strokeWidth=1;fontFamily=Verdana;fontSize=8;align=center;fillColor=#ffcc99;strokeColor=#36393d;" vertex="1" parent="2b4e8129b02d487f-2">
          <mxGeometry x="940" y="23.5" width="90" height="37" as="geometry" />
        </mxCell>
        <mxCell id="p9ZNGfW3cqj9VSiaM707-150" value="" style="ellipse;whiteSpace=wrap;html=1;rounded=0;shadow=0;labelBackgroundColor=none;strokeWidth=2;fontFamily=Verdana;fontSize=8;align=center;" vertex="1" parent="2b4e8129b02d487f-2">
          <mxGeometry x="880" y="27" width="30" height="30" as="geometry" />
        </mxCell>
        <mxCell id="p9ZNGfW3cqj9VSiaM707-151" value="兼容性问题修复" style="rounded=1;whiteSpace=wrap;html=1;shadow=0;labelBackgroundColor=none;strokeWidth=1;fontFamily=Verdana;fontSize=8;align=center;" vertex="1" parent="2b4e8129b02d487f-2">
          <mxGeometry x="1070" y="23.5" width="100" height="37" as="geometry" />
        </mxCell>
        <mxCell id="p9ZNGfW3cqj9VSiaM707-152" value="" style="endArrow=classic;html=1;rounded=0;exitX=1;exitY=0.5;exitDx=0;exitDy=0;entryX=0;entryY=0.5;entryDx=0;entryDy=0;" edge="1" parent="2b4e8129b02d487f-2" source="p9ZNGfW3cqj9VSiaM707-150" target="p9ZNGfW3cqj9VSiaM707-149">
          <mxGeometry width="50" height="50" relative="1" as="geometry">
            <mxPoint x="1040" y="-27.5" as="sourcePoint" />
            <mxPoint x="1070" y="-28" as="targetPoint" />
          </mxGeometry>
        </mxCell>
        <mxCell id="p9ZNGfW3cqj9VSiaM707-153" value="" style="endArrow=classic;html=1;rounded=0;exitX=1;exitY=0.5;exitDx=0;exitDy=0;entryX=0;entryY=0.5;entryDx=0;entryDy=0;" edge="1" parent="2b4e8129b02d487f-2" source="p9ZNGfW3cqj9VSiaM707-149" target="p9ZNGfW3cqj9VSiaM707-151">
          <mxGeometry width="50" height="50" relative="1" as="geometry">
            <mxPoint x="1040" y="-27.5" as="sourcePoint" />
            <mxPoint x="1070" y="-28" as="targetPoint" />
          </mxGeometry>
        </mxCell>
        <mxCell id="2b4e8129b02d487f-3" value="&lt;font style=&quot;font-size: 14px;&quot;&gt;软件包自主演进&lt;/font&gt;" style="swimlane;html=1;startSize=20;horizontal=0;" parent="2b4e8129b02d487f-1" vertex="1">
          <mxGeometry y="180" width="1200" height="210" as="geometry" />
        </mxCell>
        <mxCell id="2b4e8129b02d487f-26" style="edgeStyle=orthogonalEdgeStyle;rounded=0;html=1;labelBackgroundColor=none;startArrow=none;startFill=0;startSize=5;endArrow=classicThin;endFill=1;endSize=5;jettySize=auto;orthogonalLoop=1;strokeWidth=1;fontFamily=Verdana;fontSize=8" parent="2b4e8129b02d487f-3" source="2b4e8129b02d487f-12" edge="1">
          <mxGeometry relative="1" as="geometry">
            <mxPoint x="210" y="118.5" as="targetPoint" />
          </mxGeometry>
        </mxCell>
        <mxCell id="2b4e8129b02d487f-12" value="需求驱动更新" style="rounded=1;whiteSpace=wrap;html=1;shadow=0;labelBackgroundColor=none;strokeWidth=1;fontFamily=Verdana;fontSize=8;align=center;" parent="2b4e8129b02d487f-3" vertex="1">
          <mxGeometry x="80" y="100" width="90" height="37" as="geometry" />
        </mxCell>
        <mxCell id="p9ZNGfW3cqj9VSiaM707-10" value="" style="edgeStyle=orthogonalEdgeStyle;rounded=0;orthogonalLoop=1;jettySize=auto;html=1;" edge="1" parent="2b4e8129b02d487f-3" source="p9ZNGfW3cqj9VSiaM707-8" target="p9ZNGfW3cqj9VSiaM707-9">
          <mxGeometry relative="1" as="geometry" />
        </mxCell>
        <mxCell id="p9ZNGfW3cqj9VSiaM707-8" value="自主基线" style="strokeWidth=1;html=1;shape=mxgraph.flowchart.decision;whiteSpace=wrap;rounded=1;shadow=0;labelBackgroundColor=none;fontFamily=Verdana;fontSize=8;align=center;" vertex="1" parent="2b4e8129b02d487f-3">
          <mxGeometry x="210" y="90" width="70" height="60" as="geometry" />
        </mxCell>
        <mxCell id="p9ZNGfW3cqj9VSiaM707-14" value="" style="edgeStyle=orthogonalEdgeStyle;rounded=0;orthogonalLoop=1;jettySize=auto;html=1;" edge="1" parent="2b4e8129b02d487f-3" source="p9ZNGfW3cqj9VSiaM707-9" target="p9ZNGfW3cqj9VSiaM707-13">
          <mxGeometry relative="1" as="geometry" />
        </mxCell>
        <mxCell id="p9ZNGfW3cqj9VSiaM707-9" value="基线选型" style="rounded=1;whiteSpace=wrap;html=1;shadow=0;labelBackgroundColor=none;strokeWidth=1;fontFamily=Verdana;fontSize=8;align=center;fillColor=#ffcc99;strokeColor=#36393d;" vertex="1" parent="2b4e8129b02d487f-3">
          <mxGeometry x="320" y="101.5" width="70" height="37" as="geometry" />
        </mxCell>
        <mxCell id="p9ZNGfW3cqj9VSiaM707-16" value="" style="edgeStyle=orthogonalEdgeStyle;rounded=0;orthogonalLoop=1;jettySize=auto;html=1;" edge="1" parent="2b4e8129b02d487f-3" source="p9ZNGfW3cqj9VSiaM707-13" target="p9ZNGfW3cqj9VSiaM707-15">
          <mxGeometry relative="1" as="geometry">
            <Array as="points">
              <mxPoint x="455" y="59" />
            </Array>
          </mxGeometry>
        </mxCell>
        <mxCell id="p9ZNGfW3cqj9VSiaM707-25" value="" style="edgeStyle=orthogonalEdgeStyle;rounded=0;orthogonalLoop=1;jettySize=auto;html=1;entryX=0;entryY=0.5;entryDx=0;entryDy=0;entryPerimeter=0;" edge="1" parent="2b4e8129b02d487f-3" source="p9ZNGfW3cqj9VSiaM707-13" target="p9ZNGfW3cqj9VSiaM707-19">
          <mxGeometry relative="1" as="geometry" />
        </mxCell>
        <mxCell id="p9ZNGfW3cqj9VSiaM707-13" value="自研补丁&lt;br&gt;更新问题" style="strokeWidth=1;html=1;shape=mxgraph.flowchart.decision;whiteSpace=wrap;rounded=1;shadow=0;labelBackgroundColor=none;fontFamily=Verdana;fontSize=8;align=center;" vertex="1" parent="2b4e8129b02d487f-3">
          <mxGeometry x="420" y="90" width="70" height="60" as="geometry" />
        </mxCell>
        <mxCell id="p9ZNGfW3cqj9VSiaM707-27" value="" style="edgeStyle=orthogonalEdgeStyle;rounded=0;orthogonalLoop=1;jettySize=auto;html=1;entryX=0.4;entryY=0.067;entryDx=0;entryDy=0;entryPerimeter=0;" edge="1" parent="2b4e8129b02d487f-3" source="p9ZNGfW3cqj9VSiaM707-15" target="p9ZNGfW3cqj9VSiaM707-19">
          <mxGeometry relative="1" as="geometry">
            <Array as="points">
              <mxPoint x="618" y="59" />
            </Array>
          </mxGeometry>
        </mxCell>
        <mxCell id="p9ZNGfW3cqj9VSiaM707-15" value="自研 Patch 问题修复" style="rounded=1;whiteSpace=wrap;html=1;shadow=0;labelBackgroundColor=none;strokeWidth=1;fontFamily=Verdana;fontSize=8;align=center;" vertex="1" parent="2b4e8129b02d487f-3">
          <mxGeometry x="500" y="40" width="70" height="37" as="geometry" />
        </mxCell>
        <mxCell id="p9ZNGfW3cqj9VSiaM707-17" value="YES" style="text;html=1;align=center;verticalAlign=middle;resizable=0;points=[];autosize=1;strokeColor=none;fillColor=none;" vertex="1" parent="2b4e8129b02d487f-3">
          <mxGeometry x="440" y="40" width="50" height="30" as="geometry" />
        </mxCell>
        <mxCell id="p9ZNGfW3cqj9VSiaM707-22" value="" style="edgeStyle=orthogonalEdgeStyle;rounded=0;orthogonalLoop=1;jettySize=auto;html=1;" edge="1" parent="2b4e8129b02d487f-3" source="p9ZNGfW3cqj9VSiaM707-19" target="p9ZNGfW3cqj9VSiaM707-21">
          <mxGeometry relative="1" as="geometry">
            <Array as="points">
              <mxPoint x="630" y="60" />
            </Array>
          </mxGeometry>
        </mxCell>
        <mxCell id="p9ZNGfW3cqj9VSiaM707-19" value="有构建问题" style="strokeWidth=1;html=1;shape=mxgraph.flowchart.decision;whiteSpace=wrap;rounded=1;shadow=0;labelBackgroundColor=none;fontFamily=Verdana;fontSize=8;align=center;" vertex="1" parent="2b4e8129b02d487f-3">
          <mxGeometry x="590" y="90" width="70" height="60" as="geometry" />
        </mxCell>
        <mxCell id="p9ZNGfW3cqj9VSiaM707-84" value="" style="edgeStyle=orthogonalEdgeStyle;rounded=0;orthogonalLoop=1;jettySize=auto;html=1;entryX=0.357;entryY=-0.027;entryDx=0;entryDy=0;entryPerimeter=0;" edge="1" parent="2b4e8129b02d487f-3" source="p9ZNGfW3cqj9VSiaM707-21" target="p9ZNGfW3cqj9VSiaM707-24">
          <mxGeometry relative="1" as="geometry">
            <mxPoint x="830" y="58.5" as="targetPoint" />
            <Array as="points">
              <mxPoint x="782" y="59" />
            </Array>
          </mxGeometry>
        </mxCell>
        <mxCell id="p9ZNGfW3cqj9VSiaM707-21" value="构建修复" style="rounded=1;whiteSpace=wrap;html=1;shadow=0;labelBackgroundColor=none;strokeWidth=1;fontFamily=Verdana;fontSize=8;align=center;" vertex="1" parent="2b4e8129b02d487f-3">
          <mxGeometry x="680" y="40" width="70" height="37" as="geometry" />
        </mxCell>
        <mxCell id="p9ZNGfW3cqj9VSiaM707-23" value="YES" style="text;html=1;align=center;verticalAlign=middle;resizable=0;points=[];autosize=1;strokeColor=none;fillColor=none;" vertex="1" parent="2b4e8129b02d487f-3">
          <mxGeometry x="620" y="40" width="50" height="30" as="geometry" />
        </mxCell>
        <mxCell id="p9ZNGfW3cqj9VSiaM707-30" value="" style="edgeStyle=orthogonalEdgeStyle;rounded=0;orthogonalLoop=1;jettySize=auto;html=1;" edge="1" parent="2b4e8129b02d487f-3" source="p9ZNGfW3cqj9VSiaM707-19" target="p9ZNGfW3cqj9VSiaM707-24">
          <mxGeometry relative="1" as="geometry">
            <mxPoint x="870" y="360" as="sourcePoint" />
            <mxPoint x="1040" y="360" as="targetPoint" />
            <Array as="points">
              <mxPoint x="700" y="120" />
              <mxPoint x="700" y="120" />
            </Array>
          </mxGeometry>
        </mxCell>
        <mxCell id="p9ZNGfW3cqj9VSiaM707-82" value="" style="edgeStyle=orthogonalEdgeStyle;rounded=0;orthogonalLoop=1;jettySize=auto;html=1;" edge="1" parent="2b4e8129b02d487f-3" source="p9ZNGfW3cqj9VSiaM707-24" target="p9ZNGfW3cqj9VSiaM707-81">
          <mxGeometry relative="1" as="geometry" />
        </mxCell>
        <mxCell id="p9ZNGfW3cqj9VSiaM707-24" value="基线兼容性认证" style="rounded=1;whiteSpace=wrap;html=1;shadow=0;labelBackgroundColor=none;strokeWidth=1;fontFamily=Verdana;fontSize=8;align=center;fillColor=#ffcc99;strokeColor=#36393d;" vertex="1" parent="2b4e8129b02d487f-3">
          <mxGeometry x="750" y="100" width="90" height="37" as="geometry" />
        </mxCell>
        <mxCell id="p9ZNGfW3cqj9VSiaM707-31" value="NO" style="text;html=1;align=center;verticalAlign=middle;resizable=0;points=[];autosize=1;strokeColor=none;fillColor=none;" vertex="1" parent="2b4e8129b02d487f-3">
          <mxGeometry x="670" y="100" width="40" height="30" as="geometry" />
        </mxCell>
        <mxCell id="p9ZNGfW3cqj9VSiaM707-26" value="NO" style="text;html=1;align=center;verticalAlign=middle;resizable=0;points=[];autosize=1;strokeColor=none;fillColor=none;" vertex="1" parent="2b4e8129b02d487f-3">
          <mxGeometry x="490" y="100" width="40" height="30" as="geometry" />
        </mxCell>
        <mxCell id="p9ZNGfW3cqj9VSiaM707-89" value="" style="edgeStyle=orthogonalEdgeStyle;rounded=0;orthogonalLoop=1;jettySize=auto;html=1;" edge="1" parent="2b4e8129b02d487f-3" source="p9ZNGfW3cqj9VSiaM707-81" target="p9ZNGfW3cqj9VSiaM707-85">
          <mxGeometry relative="1" as="geometry">
            <mxPoint x="905" y="8.5" as="targetPoint" />
            <Array as="points">
              <mxPoint x="905" y="59" />
            </Array>
          </mxGeometry>
        </mxCell>
        <mxCell id="p9ZNGfW3cqj9VSiaM707-95" value="" style="edgeStyle=orthogonalEdgeStyle;rounded=0;orthogonalLoop=1;jettySize=auto;html=1;entryX=0;entryY=0.5;entryDx=0;entryDy=0;" edge="1" parent="2b4e8129b02d487f-3" source="p9ZNGfW3cqj9VSiaM707-81">
          <mxGeometry relative="1" as="geometry">
            <mxPoint x="1010" y="118.5" as="targetPoint" />
          </mxGeometry>
        </mxCell>
        <mxCell id="p9ZNGfW3cqj9VSiaM707-81" value="有兼容性&lt;br&gt;问题" style="strokeWidth=1;html=1;shape=mxgraph.flowchart.decision;whiteSpace=wrap;rounded=1;shadow=0;labelBackgroundColor=none;fontFamily=Verdana;fontSize=8;align=center;" vertex="1" parent="2b4e8129b02d487f-3">
          <mxGeometry x="870" y="88.5" width="70" height="60" as="geometry" />
        </mxCell>
        <mxCell id="p9ZNGfW3cqj9VSiaM707-97" value="" style="edgeStyle=orthogonalEdgeStyle;rounded=0;orthogonalLoop=1;jettySize=auto;html=1;entryX=0.5;entryY=0;entryDx=0;entryDy=0;entryPerimeter=0;" edge="1" parent="2b4e8129b02d487f-3" source="p9ZNGfW3cqj9VSiaM707-85" target="p9ZNGfW3cqj9VSiaM707-119">
          <mxGeometry relative="1" as="geometry">
            <mxPoint x="1045" y="100" as="targetPoint" />
            <Array as="points">
              <mxPoint x="1045" y="59" />
            </Array>
          </mxGeometry>
        </mxCell>
        <mxCell id="p9ZNGfW3cqj9VSiaM707-85" value="兼容性修复" style="rounded=1;whiteSpace=wrap;html=1;shadow=0;labelBackgroundColor=none;strokeWidth=1;fontFamily=Verdana;fontSize=8;align=center;" vertex="1" parent="2b4e8129b02d487f-3">
          <mxGeometry x="950" y="40" width="70" height="37" as="geometry" />
        </mxCell>
        <mxCell id="p9ZNGfW3cqj9VSiaM707-90" value="YES" style="text;html=1;align=center;verticalAlign=middle;resizable=0;points=[];autosize=1;strokeColor=none;fillColor=none;" vertex="1" parent="2b4e8129b02d487f-3">
          <mxGeometry x="900" y="40" width="50" height="30" as="geometry" />
        </mxCell>
        <mxCell id="p9ZNGfW3cqj9VSiaM707-99" value="" style="edgeStyle=orthogonalEdgeStyle;rounded=0;orthogonalLoop=1;jettySize=auto;html=1;" edge="1" parent="2b4e8129b02d487f-3" source="p9ZNGfW3cqj9VSiaM707-98" target="2b4e8129b02d487f-12">
          <mxGeometry relative="1" as="geometry" />
        </mxCell>
        <mxCell id="p9ZNGfW3cqj9VSiaM707-98" value="" style="ellipse;whiteSpace=wrap;html=1;rounded=0;shadow=0;labelBackgroundColor=none;strokeWidth=1;fontFamily=Verdana;fontSize=8;align=center;" vertex="1" parent="2b4e8129b02d487f-3">
          <mxGeometry x="30" y="103.5" width="30" height="30" as="geometry" />
        </mxCell>
        <mxCell id="p9ZNGfW3cqj9VSiaM707-118" value="发布" style="rounded=1;whiteSpace=wrap;html=1;shadow=0;labelBackgroundColor=none;strokeWidth=1;fontFamily=Verdana;fontSize=8;align=center;" vertex="1" parent="2b4e8129b02d487f-3">
          <mxGeometry x="1110" y="101.5" width="70" height="37" as="geometry" />
        </mxCell>
        <mxCell id="p9ZNGfW3cqj9VSiaM707-120" value="" style="edgeStyle=orthogonalEdgeStyle;rounded=0;orthogonalLoop=1;jettySize=auto;html=1;" edge="1" parent="2b4e8129b02d487f-3" source="p9ZNGfW3cqj9VSiaM707-119" target="p9ZNGfW3cqj9VSiaM707-118">
          <mxGeometry relative="1" as="geometry" />
        </mxCell>
        <mxCell id="p9ZNGfW3cqj9VSiaM707-119" value="可重复&lt;br&gt;构建需求" style="strokeWidth=1;html=1;shape=mxgraph.flowchart.decision;whiteSpace=wrap;rounded=1;shadow=0;labelBackgroundColor=none;fontFamily=Verdana;fontSize=8;align=center;" vertex="1" parent="2b4e8129b02d487f-3">
          <mxGeometry x="1010" y="90" width="70" height="60" as="geometry" />
        </mxCell>
        <mxCell id="p9ZNGfW3cqj9VSiaM707-11" value="YES" style="text;html=1;align=center;verticalAlign=middle;resizable=0;points=[];autosize=1;strokeColor=none;fillColor=none;" vertex="1" parent="2b4e8129b02d487f-3">
          <mxGeometry x="270" y="100" width="50" height="30" as="geometry" />
        </mxCell>
        <mxCell id="p9ZNGfW3cqj9VSiaM707-137" value="" style="endArrow=classic;html=1;rounded=0;exitX=0.5;exitY=1;exitDx=0;exitDy=0;exitPerimeter=0;entryX=0.5;entryY=1;entryDx=0;entryDy=0;entryPerimeter=0;" edge="1" parent="2b4e8129b02d487f-3" source="p9ZNGfW3cqj9VSiaM707-8" target="p9ZNGfW3cqj9VSiaM707-13">
          <mxGeometry width="50" height="50" relative="1" as="geometry">
            <mxPoint x="510" y="60" as="sourcePoint" />
            <mxPoint x="560" y="10" as="targetPoint" />
            <Array as="points">
              <mxPoint x="245" y="180" />
              <mxPoint x="455" y="180" />
            </Array>
          </mxGeometry>
        </mxCell>
        <mxCell id="p9ZNGfW3cqj9VSiaM707-138" value="NO" style="text;html=1;align=center;verticalAlign=middle;resizable=0;points=[];autosize=1;strokeColor=none;fillColor=none;" vertex="1" parent="2b4e8129b02d487f-3">
          <mxGeometry x="245" y="150" width="40" height="30" as="geometry" />
        </mxCell>
        <mxCell id="p9ZNGfW3cqj9VSiaM707-136" value="" style="endArrow=classic;html=1;rounded=0;exitX=0.5;exitY=0;exitDx=0;exitDy=0;" edge="1" parent="2b4e8129b02d487f-1" source="p9ZNGfW3cqj9VSiaM707-15" target="p9ZNGfW3cqj9VSiaM707-135">
          <mxGeometry width="50" height="50" relative="1" as="geometry">
            <mxPoint x="535" y="173" as="sourcePoint" />
            <mxPoint x="535" y="63" as="targetPoint" />
          </mxGeometry>
        </mxCell>
        <mxCell id="p9ZNGfW3cqj9VSiaM707-154" value="" style="endArrow=classic;html=1;rounded=0;exitX=0.429;exitY=0;exitDx=0;exitDy=0;exitPerimeter=0;" edge="1" parent="2b4e8129b02d487f-1" source="p9ZNGfW3cqj9VSiaM707-21">
          <mxGeometry width="50" height="50" relative="1" as="geometry">
            <mxPoint x="709" y="210" as="sourcePoint" />
            <mxPoint x="709" y="153" as="targetPoint" />
          </mxGeometry>
        </mxCell>
        <mxCell id="p9ZNGfW3cqj9VSiaM707-6" value="" style="edgeStyle=orthogonalEdgeStyle;rounded=0;orthogonalLoop=1;jettySize=auto;html=1;" edge="1" parent="2b4e8129b02d487f-1" source="p9ZNGfW3cqj9VSiaM707-3" target="2b4e8129b02d487f-12">
          <mxGeometry relative="1" as="geometry" />
        </mxCell>
        <mxCell id="p9ZNGfW3cqj9VSiaM707-104" value="" style="endArrow=classic;html=1;rounded=0;exitX=0.5;exitY=1;exitDx=0;exitDy=0;entryX=0.5;entryY=0;entryDx=0;entryDy=0;" edge="1" parent="2b4e8129b02d487f-1" source="2b4e8129b02d487f-7" target="2b4e8129b02d487f-12">
          <mxGeometry width="50" height="50" relative="1" as="geometry">
            <mxPoint x="510" y="300" as="sourcePoint" />
            <mxPoint x="560" y="250" as="targetPoint" />
          </mxGeometry>
        </mxCell>
        <mxCell id="p9ZNGfW3cqj9VSiaM707-133" value="" style="edgeStyle=orthogonalEdgeStyle;rounded=0;orthogonalLoop=1;jettySize=auto;html=1;" edge="1" parent="2b4e8129b02d487f-1" source="p9ZNGfW3cqj9VSiaM707-119" target="p9ZNGfW3cqj9VSiaM707-123">
          <mxGeometry relative="1" as="geometry" />
        </mxCell>
        <mxCell id="p9ZNGfW3cqj9VSiaM707-117" value="" style="endArrow=classic;html=1;rounded=0;exitX=0.6;exitY=0.027;exitDx=0;exitDy=0;exitPerimeter=0;entryX=0.578;entryY=1.068;entryDx=0;entryDy=0;entryPerimeter=0;" edge="1" parent="2b4e8129b02d487f-1" source="p9ZNGfW3cqj9VSiaM707-85" target="p9ZNGfW3cqj9VSiaM707-149">
          <mxGeometry width="50" height="50" relative="1" as="geometry">
            <mxPoint x="993" y="210" as="sourcePoint" />
            <mxPoint x="993" y="103" as="targetPoint" />
          </mxGeometry>
        </mxCell>
        <mxCell id="2b4e8129b02d487f-4" value="&lt;span style=&quot;font-size: 14px;&quot;&gt;供应链安全&lt;br&gt;&lt;/span&gt;" style="swimlane;html=1;startSize=20;horizontal=0;" parent="2b4e8129b02d487f-1" vertex="1">
          <mxGeometry y="390" width="1200" height="120" as="geometry" />
        </mxCell>
        <mxCell id="p9ZNGfW3cqj9VSiaM707-5" value="" style="edgeStyle=orthogonalEdgeStyle;rounded=0;orthogonalLoop=1;jettySize=auto;html=1;" edge="1" parent="2b4e8129b02d487f-4" source="p9ZNGfW3cqj9VSiaM707-2" target="p9ZNGfW3cqj9VSiaM707-3">
          <mxGeometry relative="1" as="geometry" />
        </mxCell>
        <mxCell id="p9ZNGfW3cqj9VSiaM707-2" value="" style="ellipse;whiteSpace=wrap;html=1;rounded=0;shadow=0;labelBackgroundColor=none;strokeWidth=1;fontFamily=Verdana;fontSize=8;align=center;" vertex="1" parent="2b4e8129b02d487f-4">
          <mxGeometry x="30" y="60" width="30" height="30" as="geometry" />
        </mxCell>
        <mxCell id="p9ZNGfW3cqj9VSiaM707-3" value="安全 CVE 感知" style="rounded=1;whiteSpace=wrap;html=1;shadow=0;labelBackgroundColor=none;strokeWidth=1;fontFamily=Verdana;fontSize=8;align=center;fillColor=#ffcc99;strokeColor=#36393d;" vertex="1" parent="2b4e8129b02d487f-4">
          <mxGeometry x="80" y="56.5" width="90" height="37" as="geometry" />
        </mxCell>
        <mxCell id="p9ZNGfW3cqj9VSiaM707-134" value="" style="edgeStyle=orthogonalEdgeStyle;rounded=0;orthogonalLoop=1;jettySize=auto;html=1;" edge="1" parent="2b4e8129b02d487f-4" source="p9ZNGfW3cqj9VSiaM707-123" target="p9ZNGfW3cqj9VSiaM707-132">
          <mxGeometry relative="1" as="geometry" />
        </mxCell>
        <mxCell id="p9ZNGfW3cqj9VSiaM707-123" value="可重复构建验证" style="rounded=1;whiteSpace=wrap;html=1;shadow=0;labelBackgroundColor=none;strokeWidth=1;fontFamily=Verdana;fontSize=8;align=center;fillColor=#ffcc99;strokeColor=#36393d;" vertex="1" parent="2b4e8129b02d487f-4">
          <mxGeometry x="1000" y="56.5" width="90" height="37" as="geometry" />
        </mxCell>
        <mxCell id="p9ZNGfW3cqj9VSiaM707-132" value="" style="ellipse;whiteSpace=wrap;html=1;rounded=0;shadow=0;labelBackgroundColor=none;strokeWidth=1;fontFamily=Verdana;fontSize=8;align=center;" vertex="1" parent="2b4e8129b02d487f-4">
          <mxGeometry x="1120" y="60" width="30" height="30" as="geometry" />
        </mxCell>
      </root>
    </mxGraphModel>
  </diagram>
</mxfile>
