<mxfile host="app.diagrams.net" modified="2023-04-24T03:18:35.088Z" agent="Mozilla/5.0 (Macintosh; Intel Mac OS X 10_15_7) AppleWebKit/537.36 (KHTML, like Gecko) Chrome/112.0.0.0 Safari/537.36" etag="WdOGyTNBDEUS5Ueq53m1" version="21.1.8" type="gitlab">
  <diagram name="Page-1" id="8378b5f6-a2b2-b727-a746-972ab9d02e00">
    <mxGraphModel dx="1530" dy="863" grid="1" gridSize="10" guides="1" tooltips="1" connect="0" arrows="1" fold="1" page="1" pageScale="1.5" pageWidth="1169" pageHeight="827" background="none" math="0" shadow="0">
      <root>
        <mxCell id="0" />
        <mxCell id="1" parent="0" />
        <mxCell id="-HvJ5PVy7WQwjHRfkB6l-278" value="" style="endArrow=classic;startArrow=classic;html=1;rounded=0;" parent="1" edge="1">
          <mxGeometry width="50" height="50" relative="1" as="geometry">
            <mxPoint x="480" y="840" as="sourcePoint" />
            <mxPoint x="480" y="330" as="targetPoint" />
          </mxGeometry>
        </mxCell>
        <mxCell id="-HvJ5PVy7WQwjHRfkB6l-279" value="" style="endArrow=classic;html=1;rounded=0;" parent="1" edge="1">
          <mxGeometry width="50" height="50" relative="1" as="geometry">
            <mxPoint x="480" y="600" as="sourcePoint" />
            <mxPoint x="1610" y="600" as="targetPoint" />
          </mxGeometry>
        </mxCell>
        <mxCell id="-HvJ5PVy7WQwjHRfkB6l-289" value="" style="endArrow=none;dashed=1;html=1;dashPattern=1 3;strokeWidth=2;rounded=0;" parent="1" edge="1">
          <mxGeometry width="50" height="50" relative="1" as="geometry">
            <mxPoint x="640" y="800" as="sourcePoint" />
            <mxPoint x="640" y="360" as="targetPoint" />
          </mxGeometry>
        </mxCell>
        <mxCell id="-HvJ5PVy7WQwjHRfkB6l-290" value="" style="endArrow=none;dashed=1;html=1;dashPattern=1 3;strokeWidth=2;rounded=0;" parent="1" edge="1">
          <mxGeometry width="50" height="50" relative="1" as="geometry">
            <mxPoint x="720" y="800" as="sourcePoint" />
            <mxPoint x="720" y="360" as="targetPoint" />
          </mxGeometry>
        </mxCell>
        <mxCell id="-HvJ5PVy7WQwjHRfkB6l-291" value="" style="endArrow=none;dashed=1;html=1;dashPattern=1 3;strokeWidth=2;rounded=0;" parent="1" edge="1">
          <mxGeometry width="50" height="50" relative="1" as="geometry">
            <mxPoint x="800" y="800" as="sourcePoint" />
            <mxPoint x="800" y="360" as="targetPoint" />
          </mxGeometry>
        </mxCell>
        <mxCell id="-HvJ5PVy7WQwjHRfkB6l-292" value="" style="endArrow=none;dashed=1;html=1;dashPattern=1 3;strokeWidth=2;rounded=0;" parent="1" edge="1">
          <mxGeometry width="50" height="50" relative="1" as="geometry">
            <mxPoint x="880" y="800" as="sourcePoint" />
            <mxPoint x="880" y="360" as="targetPoint" />
          </mxGeometry>
        </mxCell>
        <mxCell id="-HvJ5PVy7WQwjHRfkB6l-293" value="" style="endArrow=none;dashed=1;html=1;dashPattern=1 3;strokeWidth=2;rounded=0;" parent="1" edge="1">
          <mxGeometry width="50" height="50" relative="1" as="geometry">
            <mxPoint x="960" y="800" as="sourcePoint" />
            <mxPoint x="960" y="370" as="targetPoint" />
          </mxGeometry>
        </mxCell>
        <mxCell id="-HvJ5PVy7WQwjHRfkB6l-294" value="" style="endArrow=none;dashed=1;html=1;dashPattern=1 3;strokeWidth=2;rounded=0;" parent="1" edge="1">
          <mxGeometry width="50" height="50" relative="1" as="geometry">
            <mxPoint x="1040" y="800" as="sourcePoint" />
            <mxPoint x="1040" y="360" as="targetPoint" />
          </mxGeometry>
        </mxCell>
        <mxCell id="-HvJ5PVy7WQwjHRfkB6l-295" value="" style="endArrow=none;dashed=1;html=1;dashPattern=1 3;strokeWidth=2;rounded=0;" parent="1" edge="1">
          <mxGeometry width="50" height="50" relative="1" as="geometry">
            <mxPoint x="1120" y="800" as="sourcePoint" />
            <mxPoint x="1120" y="360" as="targetPoint" />
          </mxGeometry>
        </mxCell>
        <mxCell id="-HvJ5PVy7WQwjHRfkB6l-296" value="2022" style="text;html=1;align=center;verticalAlign=middle;resizable=0;points=[];autosize=1;strokeColor=none;fillColor=none;" parent="1" vertex="1">
          <mxGeometry x="560" y="605" width="50" height="30" as="geometry" />
        </mxCell>
        <mxCell id="-HvJ5PVy7WQwjHRfkB6l-297" value="2021" style="text;html=1;align=center;verticalAlign=middle;resizable=0;points=[];autosize=1;strokeColor=none;fillColor=none;" parent="1" vertex="1">
          <mxGeometry x="480" y="605" width="50" height="30" as="geometry" />
        </mxCell>
        <mxCell id="-HvJ5PVy7WQwjHRfkB6l-298" value="2023" style="text;html=1;align=center;verticalAlign=middle;resizable=0;points=[];autosize=1;strokeColor=none;fillColor=none;" parent="1" vertex="1">
          <mxGeometry x="640" y="605" width="50" height="30" as="geometry" />
        </mxCell>
        <mxCell id="-HvJ5PVy7WQwjHRfkB6l-299" value="2024" style="text;html=1;align=center;verticalAlign=middle;resizable=0;points=[];autosize=1;strokeColor=none;fillColor=none;" parent="1" vertex="1">
          <mxGeometry x="720" y="605" width="50" height="30" as="geometry" />
        </mxCell>
        <mxCell id="-HvJ5PVy7WQwjHRfkB6l-300" value="2025" style="text;html=1;align=center;verticalAlign=middle;resizable=0;points=[];autosize=1;strokeColor=none;fillColor=none;" parent="1" vertex="1">
          <mxGeometry x="800" y="605" width="50" height="30" as="geometry" />
        </mxCell>
        <mxCell id="-HvJ5PVy7WQwjHRfkB6l-301" value="2026" style="text;html=1;align=center;verticalAlign=middle;resizable=0;points=[];autosize=1;strokeColor=none;fillColor=none;" parent="1" vertex="1">
          <mxGeometry x="877" y="605" width="50" height="30" as="geometry" />
        </mxCell>
        <mxCell id="-HvJ5PVy7WQwjHRfkB6l-302" value="2027" style="text;html=1;align=center;verticalAlign=middle;resizable=0;points=[];autosize=1;strokeColor=none;fillColor=none;" parent="1" vertex="1">
          <mxGeometry x="960" y="605" width="50" height="30" as="geometry" />
        </mxCell>
        <mxCell id="-HvJ5PVy7WQwjHRfkB6l-303" value="2028" style="text;html=1;align=center;verticalAlign=middle;resizable=0;points=[];autosize=1;strokeColor=none;fillColor=none;" parent="1" vertex="1">
          <mxGeometry x="1040" y="605" width="50" height="30" as="geometry" />
        </mxCell>
        <mxCell id="-HvJ5PVy7WQwjHRfkB6l-304" value="2029" style="text;html=1;align=center;verticalAlign=middle;resizable=0;points=[];autosize=1;strokeColor=none;fillColor=none;" parent="1" vertex="1">
          <mxGeometry x="1120" y="605" width="50" height="30" as="geometry" />
        </mxCell>
        <mxCell id="-HvJ5PVy7WQwjHRfkB6l-305" value="2030" style="text;html=1;align=center;verticalAlign=middle;resizable=0;points=[];autosize=1;strokeColor=none;fillColor=none;" parent="1" vertex="1">
          <mxGeometry x="1200" y="605" width="50" height="30" as="geometry" />
        </mxCell>
        <mxCell id="-HvJ5PVy7WQwjHRfkB6l-306" value="" style="endArrow=none;dashed=1;html=1;dashPattern=1 3;strokeWidth=2;rounded=0;" parent="1" edge="1">
          <mxGeometry width="50" height="50" relative="1" as="geometry">
            <mxPoint x="1200" y="800" as="sourcePoint" />
            <mxPoint x="1200" y="360" as="targetPoint" />
          </mxGeometry>
        </mxCell>
        <mxCell id="-HvJ5PVy7WQwjHRfkB6l-307" value="" style="endArrow=none;dashed=1;html=1;dashPattern=1 3;strokeWidth=2;rounded=0;" parent="1" edge="1">
          <mxGeometry width="50" height="50" relative="1" as="geometry">
            <mxPoint x="1280" y="800" as="sourcePoint" />
            <mxPoint x="1280" y="360" as="targetPoint" />
          </mxGeometry>
        </mxCell>
        <mxCell id="-HvJ5PVy7WQwjHRfkB6l-308" value="" style="endArrow=none;dashed=1;html=1;dashPattern=1 3;strokeWidth=2;rounded=0;" parent="1" edge="1">
          <mxGeometry width="50" height="50" relative="1" as="geometry">
            <mxPoint x="1360" y="800" as="sourcePoint" />
            <mxPoint x="1360" y="360" as="targetPoint" />
          </mxGeometry>
        </mxCell>
        <mxCell id="-HvJ5PVy7WQwjHRfkB6l-309" value="2031" style="text;html=1;align=center;verticalAlign=middle;resizable=0;points=[];autosize=1;strokeColor=none;fillColor=none;" parent="1" vertex="1">
          <mxGeometry x="1280" y="605" width="50" height="30" as="geometry" />
        </mxCell>
        <mxCell id="-HvJ5PVy7WQwjHRfkB6l-310" value="2032" style="text;html=1;align=center;verticalAlign=middle;resizable=0;points=[];autosize=1;strokeColor=none;fillColor=none;" parent="1" vertex="1">
          <mxGeometry x="1360" y="605" width="50" height="30" as="geometry" />
        </mxCell>
        <mxCell id="-HvJ5PVy7WQwjHRfkB6l-311" value="" style="endArrow=none;dashed=1;html=1;dashPattern=1 3;strokeWidth=2;rounded=0;" parent="1" edge="1">
          <mxGeometry width="50" height="50" relative="1" as="geometry">
            <mxPoint x="1440" y="800" as="sourcePoint" />
            <mxPoint x="1440" y="360" as="targetPoint" />
          </mxGeometry>
        </mxCell>
        <mxCell id="-HvJ5PVy7WQwjHRfkB6l-312" value="" style="endArrow=none;dashed=1;html=1;dashPattern=1 3;strokeWidth=2;rounded=0;" parent="1" edge="1">
          <mxGeometry width="50" height="50" relative="1" as="geometry">
            <mxPoint x="1520" y="800" as="sourcePoint" />
            <mxPoint x="1520" y="360" as="targetPoint" />
          </mxGeometry>
        </mxCell>
        <mxCell id="-HvJ5PVy7WQwjHRfkB6l-315" value="2033" style="text;html=1;align=center;verticalAlign=middle;resizable=0;points=[];autosize=1;strokeColor=none;fillColor=none;" parent="1" vertex="1">
          <mxGeometry x="1440" y="605" width="50" height="30" as="geometry" />
        </mxCell>
        <mxCell id="-HvJ5PVy7WQwjHRfkB6l-316" value="2034" style="text;html=1;align=center;verticalAlign=middle;resizable=0;points=[];autosize=1;strokeColor=none;fillColor=none;" parent="1" vertex="1">
          <mxGeometry x="1520" y="605" width="50" height="30" as="geometry" />
        </mxCell>
        <mxCell id="-HvJ5PVy7WQwjHRfkB6l-382" value="阿里云&lt;br&gt;商业版本" style="text;html=1;strokeColor=none;fillColor=none;align=center;verticalAlign=middle;whiteSpace=wrap;rounded=0;" parent="1" vertex="1">
          <mxGeometry x="410" y="820" width="60" height="30" as="geometry" />
        </mxCell>
        <mxCell id="-HvJ5PVy7WQwjHRfkB6l-388" value="Alinux 4" style="rounded=0;whiteSpace=wrap;html=1;" parent="1" vertex="1">
          <mxGeometry x="320" y="700" width="140" height="30" as="geometry" />
        </mxCell>
        <mxCell id="-HvJ5PVy7WQwjHRfkB6l-391" value="Alinux 3" style="rounded=0;whiteSpace=wrap;html=1;" parent="1" vertex="1">
          <mxGeometry x="320" y="645" width="140" height="30" as="geometry" />
        </mxCell>
        <mxCell id="-HvJ5PVy7WQwjHRfkB6l-393" value="" style="rounded=0;whiteSpace=wrap;html=1;fillColor=#9999FF;strokeColor=#6c8ebf;" parent="1" vertex="1">
          <mxGeometry x="480" y="640" width="820" height="40" as="geometry" />
        </mxCell>
        <mxCell id="-HvJ5PVy7WQwjHRfkB6l-396" value="Alinux 5" style="rounded=0;whiteSpace=wrap;html=1;" parent="1" vertex="1">
          <mxGeometry x="320" y="750" width="140" height="30" as="geometry" />
        </mxCell>
        <mxCell id="-HvJ5PVy7WQwjHRfkB6l-408" value="" style="rounded=0;whiteSpace=wrap;html=1;fillColor=#9999FF;strokeColor=#6c8ebf;" parent="1" vertex="1">
          <mxGeometry x="840" y="695" width="400" height="40" as="geometry" />
        </mxCell>
        <mxCell id="-HvJ5PVy7WQwjHRfkB6l-416" value="" style="rounded=0;whiteSpace=wrap;html=1;fillColor=#9999FF;strokeColor=#6c8ebf;" parent="1" vertex="1">
          <mxGeometry x="1160" y="745" width="400" height="40" as="geometry" />
        </mxCell>
        <mxCell id="0VuEGjWx-zCYNdfJhffi-79" value="" style="rounded=0;whiteSpace=wrap;html=1;" vertex="1" parent="1">
          <mxGeometry x="320" y="535" width="140" height="50" as="geometry" />
        </mxCell>
        <mxCell id="0VuEGjWx-zCYNdfJhffi-80" value="" style="rounded=0;whiteSpace=wrap;html=1;fillColor=#3399FF;strokeColor=#6c8ebf;" vertex="1" parent="1">
          <mxGeometry x="515" y="545" width="410" height="40" as="geometry" />
        </mxCell>
        <mxCell id="0VuEGjWx-zCYNdfJhffi-81" value="" style="rounded=0;whiteSpace=wrap;html=1;fillColor=#3399FF;strokeColor=#6c8ebf;" vertex="1" parent="1">
          <mxGeometry x="1165" y="410" width="80" height="40" as="geometry" />
        </mxCell>
        <mxCell id="0VuEGjWx-zCYNdfJhffi-82" value="" style="rounded=0;whiteSpace=wrap;html=1;fillColor=#DEEDFF;strokeColor=#6c8ebf;" vertex="1" parent="1">
          <mxGeometry x="1365" y="410" width="200" height="40" as="geometry" />
        </mxCell>
        <mxCell id="0VuEGjWx-zCYNdfJhffi-83" value="&lt;font style=&quot;font-size: 12px;&quot;&gt;Anolis OS 8&lt;/font&gt;" style="text;html=1;strokeColor=none;fillColor=none;align=center;verticalAlign=middle;whiteSpace=wrap;rounded=0;" vertex="1" parent="1">
          <mxGeometry x="320" y="545" width="135" height="30" as="geometry" />
        </mxCell>
        <mxCell id="0VuEGjWx-zCYNdfJhffi-84" value="" style="rounded=0;whiteSpace=wrap;html=1;fillColor=#3399FF;strokeColor=#6c8ebf;" vertex="1" parent="1">
          <mxGeometry x="925" y="475" width="120" height="40" as="geometry" />
        </mxCell>
        <mxCell id="0VuEGjWx-zCYNdfJhffi-85" value="" style="rounded=0;whiteSpace=wrap;html=1;fillColor=#DEEDFF;strokeColor=#6c8ebf;" vertex="1" parent="1">
          <mxGeometry x="1045" y="475" width="200" height="40" as="geometry" />
        </mxCell>
        <mxCell id="0VuEGjWx-zCYNdfJhffi-86" value="" style="rounded=0;whiteSpace=wrap;html=1;fillColor=#3399FF;strokeColor=#6c8ebf;" vertex="1" parent="1">
          <mxGeometry x="1245" y="410" width="120" height="40" as="geometry" />
        </mxCell>
        <mxCell id="0VuEGjWx-zCYNdfJhffi-87" value="" style="rounded=0;whiteSpace=wrap;html=1;" vertex="1" parent="1">
          <mxGeometry x="320" y="465" width="140" height="50" as="geometry" />
        </mxCell>
        <mxCell id="0VuEGjWx-zCYNdfJhffi-88" value="&lt;font style=&quot;font-size: 12px;&quot;&gt;Anolis OS 25&lt;/font&gt;" style="text;html=1;strokeColor=none;fillColor=none;align=center;verticalAlign=middle;whiteSpace=wrap;rounded=0;" vertex="1" parent="1">
          <mxGeometry x="307.5" y="475" width="165" height="30" as="geometry" />
        </mxCell>
        <mxCell id="0VuEGjWx-zCYNdfJhffi-89" value="" style="rounded=0;whiteSpace=wrap;html=1;fillColor=#DEEDFF;strokeColor=#6c8ebf;" vertex="1" parent="1">
          <mxGeometry x="925" y="545" width="375" height="40" as="geometry" />
        </mxCell>
        <mxCell id="0VuEGjWx-zCYNdfJhffi-90" value="" style="rounded=0;whiteSpace=wrap;html=1;fillColor=#3399FF;strokeColor=#6c8ebf;" vertex="1" parent="1">
          <mxGeometry x="845" y="475" width="80" height="40" as="geometry" />
        </mxCell>
        <mxCell id="0VuEGjWx-zCYNdfJhffi-91" value="Anolis OS 29" style="rounded=0;whiteSpace=wrap;html=1;" vertex="1" parent="1">
          <mxGeometry x="320" y="400" width="140" height="50" as="geometry" />
        </mxCell>
        <mxCell id="0VuEGjWx-zCYNdfJhffi-92" value="龙蜥社区上游" style="text;html=1;strokeColor=none;fillColor=none;align=center;verticalAlign=middle;whiteSpace=wrap;rounded=0;" vertex="1" parent="1">
          <mxGeometry x="410" y="330" width="60" height="30" as="geometry" />
        </mxCell>
        <mxCell id="0VuEGjWx-zCYNdfJhffi-95" value="LTS 开发支持阶段" style="rounded=0;whiteSpace=wrap;html=1;fillColor=#3399FF;strokeColor=#6c8ebf;" vertex="1" parent="1">
          <mxGeometry x="650" y="860" width="160" height="40" as="geometry" />
        </mxCell>
        <mxCell id="0VuEGjWx-zCYNdfJhffi-96" value="非 LTS 维护支持阶段" style="rounded=0;whiteSpace=wrap;html=1;fillColor=#9999FF;strokeColor=#6c8ebf;" vertex="1" parent="1">
          <mxGeometry x="1045" y="860" width="163" height="40" as="geometry" />
        </mxCell>
        <mxCell id="0VuEGjWx-zCYNdfJhffi-97" value="LTS 维护支持阶段" style="rounded=0;whiteSpace=wrap;html=1;fillColor=#DEEDFF;strokeColor=#99CCFF;" vertex="1" parent="1">
          <mxGeometry x="850" y="860" width="160" height="40" as="geometry" />
        </mxCell>
      </root>
    </mxGraphModel>
  </diagram>
</mxfile>
